stoplight2_dump.vcd
$date
	Thu Mar  7 20:12:21 2024
$end
$version
	Icarus Verilog
$end
$timescale
	1ps
$end
$scope module stoplight2_tb $end
$var wire 1 ! SigY $end
$var wire 1 " SigR $end
$var wire 1 # SigG $end
$var reg 1 $ CLK $end
$var reg 1 % Ped $end
$scope module x1 $end
$var wire 1 & NS0 $end
$var wire 1 ' NS1 $end
$var wire 1 ( NS2 $end
$var wire 1 ) NS3 $end
$var wire 1 * NS4 $end
$var wire 1 % Ped $end
$var wire 1 # SigG $end
$var wire 1 " SigR $end
$var wire 1 ! SigY $end
$var wire 1 $ clock $end
$var wire 1 + n100 $end
$var wire 1 , n101 $end
$var wire 1 - n102 $end
$var wire 1 . n103 $end
$var wire 1 / n104 $end
$var wire 1 0 n105 $end
$var wire 1 1 n106 $end
$var wire 1 2 n107 $end
$var wire 1 3 n108 $end
$var wire 1 4 n109 $end
$var wire 1 5 n110 $end
$var wire 1 6 n111 $end
$var wire 1 7 n112 $end
$var wire 1 8 n113 $end
$var wire 1 9 n114 $end
$var wire 1 : n116 $end
$var wire 1 ; n117 $end
$var wire 1 < n118 $end
$var wire 1 = n119 $end
$var wire 1 > n120 $end
$var wire 1 ? n15 $end
$var wire 1 @ n16 $end
$var wire 1 A n17 $end
$var wire 1 B n18 $end
$var wire 1 C n19 $end
$var wire 1 D n20 $end
$var wire 1 E n21 $end
$var wire 1 F n22 $end
$var wire 1 G n23 $end
$var wire 1 H n24 $end
$var wire 1 I n25 $end
$var wire 1 J n26 $end
$var wire 1 K n27 $end
$var wire 1 L n28 $end
$var wire 1 M n29 $end
$var wire 1 N n30 $end
$var wire 1 O n31 $end
$var wire 1 P n32 $end
$var wire 1 Q n33 $end
$var wire 1 R n34 $end
$var wire 1 S n35 $end
$var wire 1 T n36 $end
$var wire 1 U n37 $end
$var wire 1 V n38 $end
$var wire 1 W n39 $end
$var wire 1 X n40 $end
$var wire 1 Y n41 $end
$var wire 1 Z n42 $end
$var wire 1 [ n43 $end
$var wire 1 \ n44 $end
$var wire 1 ] n45 $end
$var wire 1 ^ n46 $end
$var wire 1 _ n47 $end
$var wire 1 ` n48 $end
$var wire 1 a n49 $end
$var wire 1 b n50 $end
$var wire 1 c n51 $end
$var wire 1 d n52 $end
$var wire 1 e n53 $end
$var wire 1 f n54 $end
$var wire 1 g n55 $end
$var wire 1 h n57 $end
$var wire 1 i n58 $end
$var wire 1 j n60 $end
$var wire 1 k n61 $end
$var wire 1 l n62 $end
$var wire 1 m n63 $end
$var wire 1 n n64 $end
$var wire 1 o n65 $end
$var wire 1 p n67 $end
$var wire 1 q n68 $end
$var wire 1 r n69 $end
$var wire 1 s n70 $end
$var wire 1 t n71 $end
$var wire 1 u n72 $end
$var wire 1 v n73 $end
$var wire 1 w n74 $end
$var wire 1 x n75 $end
$var wire 1 y n77 $end
$var wire 1 z n78 $end
$var wire 1 { n79 $end
$var wire 1 | n80 $end
$var wire 1 } n81 $end
$var wire 1 ~ n82 $end
$var wire 1 !" n83 $end
$var wire 1 "" n84 $end
$var wire 1 #" n85 $end
$var wire 1 $" n86 $end
$var wire 1 %" n88 $end
$var wire 1 &" n89 $end
$var wire 1 '" n90 $end
$var wire 1 (" n91 $end
$var wire 1 )" n92 $end
$var wire 1 *" n93 $end
$var wire 1 +" n94 $end
$var wire 1 ," n95 $end
$var wire 1 -" n96 $end
$var wire 1 ." n97 $end
$var wire 1 /" n99 $end
$var reg 1 0" S0 $end
$var reg 1 1" S1 $end
$var reg 1 2" S2 $end
$var reg 1 3" S3 $end
$var reg 1 4" S4 $end
$upscope $end
$upscope $end
$enddefinitions $end
#0
$dumpvars
04"
03"
02"
01"
00"
0/"
1."
1-"
1,"
1+"
0*"
0)"
1("
0'"
0&"
0%"
1$"
1#"
1""
0!"
0~
1}
0|
1{
0z
0y
1x
1w
1v
1u
0t
0s
1r
0q
0p
0o
0n
1m
1l
0k
0j
1i
0h
1g
1f
1e
1d
1c
0b
1a
0`
1_
0^
1]
0\
0[
1Z
1Y
0X
0W
1V
1U
0T
0S
0R
1Q
1P
1O
1N
1M
0L
0K
1J
0I
1H
1G
1F
1E
0D
0C
1B
1A
1@
1?
0>
0=
1<
1;
1:
19
18
17
16
15
04
03
12
01
00
1/
1.
0-
0,
1+
0*
0)
0(
0'
1&
0%
0$
0#
1"
0!
$end
#10000
1'
0&
09
1>
08
1=
0l
1n
1k
0_
0m
1&"
1j
0?
10"
1$
#20000
0$
#30000
1&
0>
07
0<
18
0=
02
06
0;
1l
0n
11
05
0k
1m
1p
10
14
0i
0j
1?
13
0F
00"
11"
0H
0&"
0G
0K
1%
1$
#40000
0$
#50000
1#
0g
1(
0f
0."
0&
17
0Z
08
0"
1>
16
1<
0U
1o
1=
12
1;
1T
1n
01
15
1S
0m
0p
00
04
1R
1K
0?
10"
1$
#60000
0$
#70000
1&
0>
1f
0/
0,"
07
0<
1Z
18
0.
0+"
02
06
0;
1U
0O
0-"
1-
1*"
11
05
0T
0E
0S
1p
1)"
10
14
0Q
0V
1D
0R
0K
1?
1,
1y
1[
0P
1C
00"
12"
1$
#80000
0$
#90000
0(
0&
0'
1."
1>
19
1#
1-"
1<
17
1*
0g
1/
1,"
1;
16
0N
0x
0O
1.
1+"
12
0M
1E
0-
0*"
01
15
1S
1L
0D
0p
0)"
00
04
1R
1K
0?
10"
1$
#100000
0$
#110000
1&
0>
0w
0<
0v
0:
1O
1*
0f
0r
0a
1N
0x
0e
1q
1`
1M
0d
1p
0S
1_
1V
1^
1i
0L
0c
0B
0K
1?
03
0R
1F
0,
0y
0[
1P
0C
1b
0@
00"
01"
02"
14"
1$
#120000
0$
#130000
0*
0&
1x
1>
1w
1<
1v
1:
1a
1r
0`
0q
0_
0p
1s
1j
1K
0?
10"
1$
#140000
0$
#150000
1&
0#
1"
0>
1g
0o
0=
1f
0n
1e
1m
1d
1Q
1_
1c
1B
0j
1?
0s
0b
0^
1@
00"
04"
0'
19
0*
17
1x
1/
1w
1+
1v
0/"
1u
1H
0t
0&"
1G
0K
0%
1$
#160000
0$
#170000
1'
0&
09
1>
08
1=
0l
1n
1k
0_
0m
1j
1K
0?
10"
0H
0G
0p
1%
1$
#180000
0$
#190000
1&
0>
07
0<
18
0=
02
06
0;
1l
0n
11
05
0k
1m
1p
10
14
0i
0j
0K
1?
13
0F
00"
11"
1$
#200000
0$
#210000
1#
0g
1(
0'
0f
0."
0&
19
0Z
0"
1>
17
1<
0Y
1o
1=
16
1;
1X
1n
15
1W
0m
00
04
1&"
1R
0?
10"
12
1G
0p
01
0%
1$
#220000
0$
#230000
1&
0>
07
0<
1f
0/
0,"
0;
1Z
0.
0+"
0O
0-"
1-
1*"
0E
1p
1)"
1_
1%"
0Q
0V
1D
1?
03
0R
1F
1,
1[
0P
1C
00"
01"
12"
1'
09
1Y
18
0X
1U
0W
0&"
0T
0G
0K
0S
1%
1$
#240000
0$
#250000
0(
0&
0'
1."
1>
19
1#
1-"
1<
17
1*
0g
1/
1,"
1;
0N
0x
0O
1.
1+"
16
0M
1E
0-
0*"
12
1L
0D
0p
0)"
01
1S
0_
0%"
1K
0?
13
00
1y
1R
0F
10"
11"
1$
#260000
0$
#270000
0a
1`
0d
1H
1_
1V
1^
1i
0c
0B
1?
03
0R
1F
0,
0y
0[
1P
0C
1b
0@
00"
01"
02"
14"
1#
0f
0g
0e
1w
1O
0*
1]
1N
1x
0\
1M
0W
0&"
0L
1G
0K
0S
0%
1$
#280000
0$
#290000
0#
1"
1g
0o
0=
1f
0n
1e
1m
1d
1a
1Q
1c
0`
1B
0b
0^
1@
04"
0*
1&
1x
0>
1w
1<
1v
1:
1r
0H
0q
0G
1p
1%
1$
#300000
0$
#310000
1'
0&
09
1>
08
1=
0l
1n
1k
0_
0m
1&"
1j
0?
10"
1H
1G
0p
0%
1$
#320000
0$
#330000
1&
0>
07
0<
18
0=
02
06
0;
1l
0n
11
05
0k
1m
1p
10
14
0i
0j
1?
13
0F
00"
11"
0H
0&"
0G
0K
1%
1$
#340000
0$
#350000
1#
0g
1(
0'
0f
0."
0&
19
0Z
0"
1>
17
1<
0Y
1o
1=
16
1;
1X
1n
15
1W
0m
00
04
1&"
1R
0?
10"
12
1G
0p
01
0%
1$
#360000
0$
#370000
1&
0>
07
0<
1f
0/
0,"
0;
1Z
0.
0+"
0O
0-"
1-
1*"
0E
1p
1)"
1_
1%"
0Q
0V
1D
1?
03
0R
1F
1,
1[
0P
1C
00"
01"
12"
1'
09
1Y
18
0X
1U
0W
0&"
0T
0G
0K
0S
1%
1$
#380000
0$
#390000
0(
0&
0'
1."
1>
19
1#
1-"
1<
17
1*
0g
1/
1,"
1;
0N
0x
0O
1.
1+"
16
0M
1E
0-
0*"
12
1L
0D
0p
0)"
01
1S
0_
0%"
1K
0?
13
00
1y
1R
0F
10"
11"
1$
#400000
0$
#410000
0a
1`
0d
1H
1_
1V
1^
1i
0c
0B
1?
03
0R
1F
0,
0y
0[
1P
0C
1b
0@
00"
01"
02"
14"
1#
0f
0g
0e
1w
1O
0*
1]
1N
1x
0\
1M
0W
0&"
0L
1G
0K
0S
0%
1$
#420000
0$
#430000
0#
1"
1g
0o
0=
1f
0n
1e
1m
1d
1a
1Q
1c
0`
1B
0b
0^
1@
04"
0*
1&
1x
0>
1w
1<
1v
1:
1r
0H
0q
0G
1p
1%
1$
#440000
0$
#450000
1'
0&
09
1>
08
1=
0l
1n
1k
0_
0m
1&"
1j
0?
10"
1H
1G
0p
0%
1$
#460000
0$
#470000
1&
0>
07
0<
18
0=
06
0;
1l
0n
05
0k
1m
10
14
0H
0i
0&"
0j
1?
13
0F
00"
11"
1$
#480000
0$
#490000
1#
0g
1(
0'
0f
0."
0&
19
0Z
0"
1>
17
1<
0Y
1o
1=
16
1;
1X
1n
15
1W
0m
00
04
1&"
1R
0?
10"
1$
#500000
0$
#510000
1&
0>
07
0<
1f
0/
0,"
0;
1Z
0.
0+"
0O
0-"
1-
1*"
0E
1p
1)"
1_
1%"
0Q
0V
1D
1?
03
0R
1F
1,
1[
0P
1C
00"
01"
12"
1'
09
1Y
18
0X
1U
0W
0&"
0T
0G
0K
0S
1%
1$
#520000
0$
#530000
1*
0(
0f
0x
1O
1."
0e
0w
1-"
0]
1E
1\
0D
0)"
1W
0_
0%"
1&"
0?
13
00
1y
1R
0F
10"
11"
0'
19
0&
1N
1=
17
1>
1J
1/
1<
0I
1.
1,"
1;
0H
0-
1+"
1G
0p
0*"
0%
1$
#540000
0$
#550000
1&
0>
0<
0v
0:
1*
0r
0a
0x
1q
1`
0d
1p
1_
1V
1^
1i
0c
0B
1?
03
0R
1F
0,
0y
0[
1P
0C
1b
0@
00"
01"
02"
14"
0f
0e
0w
1O
1]
1N
0\
1M
0W
0&"
0L
0G
0K
0S
1%
1$
#560000
0$
#570000
0*
0&
1x
1>
1w
1<
1v
1:
1a
1r
0`
0q
0_
0p
1s
1j
1K
0?
10"
1$
#580000
0$
#590000
1&
0#
1"
0>
1g
0o
0=
1f
0n
1e
1m
1d
1Q
1_
1p
1c
1B
0j
0K
1?
0s
0b
0^
1@
00"
04"
1$
#600000
0$
#610000
1'
0&
09
1>
08
1=
0l
1n
1k
0_
0m
0p
1j
1K
0?
10"
1$
#620000
0$
#630000
1&
0>
07
0<
18
0=
06
0;
1l
0n
05
0k
1m
10
14
0i
0j
1?
13
0F
00"
11"
0H
0&"
1G
0K
0%
1$
#640000
0$
#650000
1#
0g
1(
0'
0f
0."
0&
19
0Z
0"
1>
17
1<
0Y
1o
1=
16
1;
1X
1n
15
1W
0m
00
04
1&"
1R
0?
10"
1$
#660000
0$
#670000
1&
1f
0>
0*
0N
0=
1x
1Z
0J
1e
1w
1Y
0O
0-"
1I
1]
0X
0E
1)"
0W
1H
1_
1%"
0\
0Q
0V
1D
0&"
1?
03
0R
1F
1,
1[
0P
1C
00"
01"
12"
1$
#680000
0$
#690000
1(
0."
0,"
0-"
0("
1E
1'"
0D
0_
0)"
1&"
1j
0?
10"
1$
#700000
0$
#710000
0(
0&
1."
1>
1-"
1=
1,"
1*
1J
1("
0x
0I
0'"
0M
0H
0&"
1L
0G
1K
1%
1$
#720000
0$
#730000
0f
0a
0e
1`
0d
1_
1V
1^
1i
0c
0B
0j
1?
0,
0%"
0[
1P
0C
1b
0@
00"
02"
14"
0(
0&
1."
1#
1>
1-"
0g
1=
1,"
1O
0*
1J
1("
1N
1x
0I
0'"
1M
1H
0&"
0L
1G
0K
0%
1$
#740000
0$
#750000
0#
1"
1g
0o
0=
1f
0n
1e
1m
1d
1a
1Q
1c
0`
1B
0b
0^
1@
04"
0*
1&
1x
0>
1w
1<
1v
1:
1r
0H
0q
0G
1p
1%
1$
#760000
0$
#770000
1'
0&
09
1>
08
1=
0l
1n
1k
0_
0m
0p
1j
1K
0?
10"
1$
#780000
0$
#790000
1&
0>
07
0<
18
0=
02
06
0;
1l
0n
11
05
0k
1m
1p
10
14
0i
0j
0K
1?
13
0F
00"
11"
1$
#800000
0$
#810000
1#
0g
1(
0f
0."
0&
17
0Z
08
0"
1>
16
1<
0U
1o
1=
12
1;
1T
1n
01
15
1S
0m
0p
00
04
1R
1K
0?
10"
1$
#820000
0$
#830000
1&
0>
1f
0/
0,"
07
0<
1Z
18
0.
0+"
02
06
0;
1U
0O
0-"
1-
1*"
11
05
0T
0E
0S
1p
1)"
10
14
0Q
0V
1D
0R
0K
1?
1,
1y
1[
0P
1C
00"
12"
1$
#840000
0$
#850000
1*
0'
0&
0f
0x
1#
0(
19
1>
0e
0w
0g
1."
17
1<
0]
1O
1-"
16
1;
1\
1E
15
1W
0D
0)"
00
04
1&"
1R
0?
10"
1/
1.
1,"
0-
1+"
12
1G
0p
0*"
01
0%
1$
#860000
0$
#870000
0*
1x
1w
0a
1]
1`
0d
0W
1H
1_
0\
1V
1^
1i
0c
0B
0&"
1?
03
0R
1F
0,
0y
0[
1P
0C
1b
0@
00"
01"
02"
14"
1$
#880000
0$
#890000
0#
1"
1g
0o
0=
1f
0n
1e
1m
1d
1a
1Q
1c
0`
1B
0b
0^
1@
04"
0*
1&
1x
0>
1w
1<
1v
1:
1r
0H
0q
0G
1p
1%
1$
#900000
0$
#910000
1'
0&
09
1>
08
1=
0l
1n
1k
0_
0m
0p
1j
1K
0?
10"
1$
#920000
0$
#930000
1&
0>
07
0<
18
0=
02
06
0;
1l
0n
11
05
0k
1m
1p
10
14
0i
0j
0K
1?
13
0F
00"
11"
1$
#940000
0$
#950000
1#
0g
1(
0'
0f
0."
0&
19
0Z
0"
1>
17
1<
0Y
1o
1=
16
1;
1X
1n
15
1W
0m
00
04
1&"
1R
0?
10"
12
1G
0p
01
0%
1$
#960000
0$
#970000
1&
1f
0>
0*
0N
0=
1x
1Z
0J
1e
1w
1Y
0O
0-"
1I
1]
0X
0E
1)"
0W
1H
1_
1%"
0\
0Q
0V
1D
0&"
1?
03
0R
1F
1,
1[
0P
1C
00"
01"
12"
1$
#980000
0$
#990000
1(
0."
0,"
0-"
0("
1E
1'"
0D
0_
0)"
1&"
1j
0?
10"
1$
#1000000
0$
#1010000
1$
#1020000
0$
#1030000
1$
#1040000
0$
#1050000
0(
0&
1."
1>
1-"
1=
1,"
1*
1J
1("
0x
0I
0'"
0M
0H
0&"
1L
0G
1K
1%
1$
#1060000
0$
#1070000
0f
0a
0e
1`
0d
1_
1V
1^
1i
0c
0B
0j
1?
0,
0%"
0[
1P
0C
1b
0@
00"
02"
14"
0(
0&
1."
1#
1>
1-"
0g
1=
1,"
1O
0*
1J
1("
1N
1x
0I
0'"
1M
1H
0&"
0L
1G
0K
0%
1$
#1080000
0$
#1090000
1&
0#
1"
0>
1g
0o
0=
1f
0n
1e
1m
1d
1a
1Q
1c
0`
1B
0b
0^
1@
04"
1$
#1100000
0$
#1110000
1'
0&
09
1>
08
1=
0l
1n
1k
0_
0m
1j
1K
0?
10"
0H
0G
0p
1%
1$
#1120000
0$
#1130000
1&
0>
07
0<
18
0=
02
06
0;
1l
0n
11
05
0k
1m
1p
10
14
0i
0j
0K
1?
13
0F
00"
11"
1$
#1140000
0$
#1150000
1#
0g
1(
0'
0f
0."
0&
19
0Z
0"
1>
17
1<
0Y
1o
1=
16
1;
1X
1n
15
1W
0m
00
04
1&"
1R
0?
10"
12
1G
0p
01
0%
1$
#1160000
0$
#1170000
1&
1f
0>
0*
0N
0=
1x
1Z
0J
1e
1w
1Y
0O
0-"
1I
1]
0X
0E
1)"
0W
1H
1_
1%"
0\
0Q
0V
1D
0&"
1?
03
0R
1F
1,
1[
0P
1C
00"
01"
12"
1$
#1180000
0$
#1190000
1(
0."
0,"
0-"
0("
1E
1'"
0D
0_
0)"
1&"
1j
0?
10"
1$
#1200000
0$
#1210000
1$
#1220000
0$
#1230000
1$
#1240000
0$
#1250000
0(
0&
1."
1>
1-"
1=
1,"
1*
1J
1("
0x
0I
0'"
0M
0H
0&"
1L
0G
1K
1%
1$
#1260000
0$
#1270000
1&
0>
0w
0<
0v
0:
1O
1*
0f
0r
0a
1N
0x
0e
1q
1`
1M
0d
1_
1p
1V
1^
1i
0L
0c
0B
0j
0K
1?
0,
0%"
0[
1P
0C
1b
0@
00"
02"
14"
1$
#1280000
0$
#1290000
0*
0&
1x
1>
1w
1<
1v
1:
1a
1r
0`
0q
0_
0p
1s
1j
1K
0?
10"
1$
#1300000
0$
#1310000
1&
0#
1"
0>
1g
0o
0=
1f
0n
1e
1m
1d
1Q
1_
1p
1c
1B
0j
0K
1?
0s
0b
0^
1@
00"
04"
1$
#1320000
0$
#1330000
1'
0&
09
1>
08
1=
0l
1n
1k
0_
0m
0p
1j
1K
0?
10"
1$
#1340000
0$
#1350000
1&
0>
07
0<
18
0=
06
0;
1l
0n
05
0k
1m
10
14
0i
0j
1?
13
0F
00"
11"
0H
0&"
1G
0K
0%
1$
#1360000
0$
#1370000
1#
0g
1(
0'
0f
0."
0&
19
0Z
0"
1>
17
1<
0Y
1o
1=
16
1;
1X
1n
15
1W
0m
00
04
1&"
1R
0?
10"
1$
#1380000
0$
#1390000
1&
0>
07
0<
1f
0/
0,"
0;
1Z
0.
0+"
0O
0-"
1-
1*"
0E
1p
1)"
1_
1%"
0Q
0V
1D
1?
03
0R
1F
1,
1[
0P
1C
00"
01"
12"
1'
09
1Y
18
0X
1U
0W
0&"
0T
0G
0K
0S
1%
1$
#1400000
0$
#1410000
0(
0&
0'
1."
1>
19
1#
1-"
1<
17
1*
0g
1/
1,"
1;
0N
0x
0O
1.
1+"
16
0M
1E
0-
0*"
12
1L
0D
0p
0)"
01
1S
0_
0%"
1K
0?
13
00
1y
1R
0F
10"
11"
1$
#1420000
0$
#1430000
1&
0>
0w
0<
0v
0:
1O
1*
0f
0r
0a
1N
0x
0e
1q
1`
1M
0d
1p
0S
1_
1V
1^
1i
0L
0c
0B
0K
1?
03
0R
1F
0,
0y
0[
1P
0C
1b
0@
00"
01"
02"
14"
1$
#1440000
0$
#1450000
1'
09
07
0/
1a
0u
0+
0`
1t
1/"
0_
1&"
1s
1j
0?
10"
1*
0&
0x
1>
0w
1<
0v
1:
1r
1H
0q
1G
0p
0%
1$
#1460000
0$
#1470000
0*
0'
1x
19
1w
17
1v
1/
1u
1+
0t
0/"
10
0H
0i
0&"
0s
0j
1?
0F
00"
11"
1$
#1480000
0$
#1490000
0#
1"
1g
0o
0=
1f
0n
1e
1m
1d
1Q
1_
1i
1c
1B
00
1F
0b
0^
1@
01"
04"
0*
1&
1x
0>
0'
1w
1<
19
1v
1:
17
1r
16
0q
12
0G
1p
01
1%
1$
#1500000
0$
#1510000
1'
0&
09
1>
08
1=
0l
1n
1k
0_
0m
0p
1j
1K
0?
10"
1$
#1520000
0$
#1530000
1&
0>
07
0<
18
0=
06
0;
1l
0n
05
0k
1m
10
14
0i
0j
1?
13
0F
00"
11"
0H
0&"
1G
0K
0%
1$
#1540000
0$
#1550000
1#
0g
1(
0f
0."
0&
17
0Z
08
0"
1>
16
1<
0U
1o
1=
1;
1T
1n
15
1S
0m
00
04
1R
1K
0?
10"
12
0G
0p
01
1%
1$
#1560000
0$
#1570000
1&
0>
1f
0/
0,"
07
0<
1Z
18
0.
0+"
02
06
0;
1U
0O
0-"
1-
1*"
11
05
0T
0E
0S
1p
1)"
10
14
0Q
0V
1D
0R
0K
1?
1,
1y
1[
0P
1C
00"
12"
1$
#1580000
0$
#1590000
1*
0'
0&
0f
0x
1#
0(
19
1>
0e
0w
0g
1."
17
1<
0]
1O
1-"
16
1;
1\
1E
15
1W
0D
0)"
00
04
1&"
1R
0?
10"
1/
1.
1,"
0-
1+"
12
1G
0p
0*"
01
0%
1$
#1600000
0$
#1610000
1&
0>
0<
0v
0:
1*
0r
0a
0x
1q
1`
0d
1p
1_
1V
1^
1i
0c
0B
1?
03
0R
1F
0,
0y
0[
1P
0C
1b
0@
00"
01"
02"
14"
0f
0e
0w
1O
1]
1N
0\
1M
0W
0&"
0L
0G
0K
0S
1%
1$
#1620000
0$
#1630000
0*
0&
1x
1>
1w
1<
1v
1:
1a
1r
0`
0q
0_
0p
1s
1j
1K
0?
10"
1$
#1640000
0$
#1650000
1&
0#
1"
0>
1g
0o
0=
1f
0n
1e
1m
1d
1Q
1_
1p
1c
1B
0j
0K
1?
0s
0b
0^
1@
00"
04"
1$
#1660000
0$
#1670000
1'
0&
09
1>
08
1=
0l
1n
1k
0_
0m
1&"
1j
0?
10"
1H
1G
0p
0%
1$
#1680000
0$
#1690000
1&
0>
07
0<
18
0=
02
06
0;
1l
0n
11
05
0k
1m
1p
10
14
0i
0j
1?
13
0F
00"
11"
0H
0&"
0G
0K
1%
1$
#1700000
0$
#1710000
1#
0g
1(
0f
0."
0&
17
0Z
08
0"
1>
16
1<
0U
1o
1=
12
1;
1T
1n
01
15
1S
0m
0p
00
04
1R
1K
0?
10"
1$
#1720000
0$
#1730000
1&
0>
0*
07
0<
1x
06
0;
1e
1w
0O
0-"
05
1]
0E
1)"
10
14
0\
0Q
0V
1D
0R
1?
1,
1y
1[
0P
1C
00"
12"
1#
0g
1(
1'
1f
0."
09
1Y
1Z
18
0X
1U
0W
0&"
0T
1G
0K
0S
0%
1$
#1740000
0$
#1750000
1*
0'
0&
0f
0x
1#
0(
19
1>
0e
0w
0g
1."
17
1<
0]
1O
1-"
16
1;
1\
1E
15
1W
0D
0)"
00
04
1&"
1R
0?
10"
1$
#1760000
0$
#1770000
0*
1x
1w
0a
1]
1`
0d
0W
1H
1_
0\
1V
1^
1i
0c
0B
0&"
1?
03
0R
1F
0,
0y
0[
1P
0C
1b
0@
00"
01"
02"
14"
1$
#1780000
0$
#1790000
1&
0#
1"
0>
1g
0o
0=
1f
0n
1e
1m
1d
1a
1Q
1c
0`
1B
0b
0^
1@
04"
1$
#1800000
0$
#1810000
1'
0&
09
1>
08
1=
0l
1n
1k
0_
0m
1j
1K
0?
10"
0H
0G
0p
1%
1$
#1820000
0$
#1830000
1&
0>
07
0<
18
0=
02
06
0;
1l
0n
11
05
0k
1m
1p
10
14
0i
0j
0K
1?
13
0F
00"
11"
1$
#1840000
0$
#1850000
1#
0g
1(
0'
0f
0."
0&
19
0Z
0"
1>
17
1<
0Y
1o
1=
16
1;
1X
1n
15
1W
0m
00
04
1&"
1R
0?
10"
12
1G
0p
01
0%
1$
#1860000
0$
#1870000
1&
1f
0>
0*
0N
0=
1x
1Z
0J
1e
1w
1Y
0O
0-"
1I
1]
0X
0E
1)"
0W
1H
1_
1%"
0\
0Q
0V
1D
0&"
1?
03
0R
1F
1,
1[
0P
1C
00"
01"
12"
1$
#1880000
0$
#1890000
0(
0&
1."
1>
1#
1-"
1*
0g
0x
0O
0M
1E
1L
0D
0_
0)"
1j
1K
0?
10"
0'
19
0N
1=
17
1J
1/
1<
0I
1.
1,"
1;
0H
0-
1+"
0G
0p
0*"
1%
1$
#1900000
0$
#1910000
1&
0>
0w
0<
0v
0:
1O
1*
0f
0r
0a
1N
0x
0e
1q
1`
1M
0d
1_
1p
1V
1^
1i
0L
0c
0B
0j
0K
1?
0,
0%"
0[
1P
0C
1b
0@
00"
02"
14"
1$
#1920000
0$
#1930000
0*
0&
1x
1>
1w
1<
1v
1:
1a
1r
0`
0q
0_
0p
1s
1j
1K
0?
10"
1$
#1940000
0$
#1950000
1&
0#
1"
0>
1g
0o
0=
1f
0n
1e
1m
1d
1Q
1_
1p
1c
1B
0j
0K
1?
0s
0b
0^
1@
00"
04"
1$
#1960000
0$
#1970000
1'
0&
09
1>
08
1=
0l
1n
1k
0_
0m
0p
1j
1K
0?
10"
1$
#1980000
0$
#1990000
1&
0>
07
0<
18
0=
06
0;
1l
0n
05
0k
1m
10
14
0i
0j
1?
13
0F
00"
11"
0H
0&"
1G
0K
0%
1$
#2000000
0$
#2010000
1#
0g
1(
0f
0."
0&
17
0Z
08
0"
1>
16
1<
0U
1o
1=
1;
1T
1n
15
1S
0m
00
04
1R
1K
0?
10"
12
0G
0p
01
1%
1$
#2020000
0$
#2030000
1&
0>
1f
0/
0,"
07
0<
1Z
18
0.
0+"
02
06
0;
1U
0O
0-"
1-
1*"
11
05
0T
0E
0S
1p
1)"
10
14
0Q
0V
1D
0R
0K
1?
1,
1y
1[
0P
1C
00"
12"
1$
#2040000
0$
#2050000
0(
0&
0'
1."
1>
19
1#
1-"
1<
17
1*
0g
1/
1,"
1;
16
0N
0x
0O
1.
1+"
12
0M
1E
0-
0*"
01
15
1S
1L
0D
0p
0)"
00
04
1R
1K
0?
10"
1$
#2060000
0$
#2070000
0a
1`
0d
1H
1_
1V
1^
1i
0c
0B
1?
03
0R
1F
0,
0y
0[
1P
0C
1b
0@
00"
01"
02"
14"
1#
0f
0g
0e
1w
1O
0*
1]
1N
1x
0\
1M
0W
0&"
0L
1G
0K
0S
0%
1$
#2080000
0$
#2090000
1&
0#
1"
0>
1g
0o
0=
1f
0n
1e
1m
1d
1a
1Q
1c
0`
1B
0b
0^
1@
04"
1$
#2100000
0$
#2110000
1'
0&
09
1>
08
1=
0l
1n
1k
0_
0m
1&"
1j
0?
10"
1$
#2120000
0$
#2130000
1&
0>
07
0<
18
0=
06
0;
1l
0n
05
0k
1m
10
14
0H
0i
0&"
0j
1?
13
0F
00"
11"
1$
#2140000
0$
#2150000
1#
0g
1(
0'
0f
0."
0&
19
0Z
0"
1>
17
1<
0Y
1o
1=
16
1;
1X
1n
15
1W
0m
00
04
1&"
1R
0?
10"
1$
#2160000
0$
#2170000
1&
1f
0>
0*
0N
0=
1x
1Z
0J
1e
1w
1Y
0O
0-"
1I
1]
0X
0E
1)"
0W
1H
1_
1%"
0\
0Q
0V
1D
0&"
1?
03
0R
1F
1,
1[
0P
1C
00"
01"
12"
1$
#2180000
0$
#2190000
1(
0."
0,"
0-"
0("
1E
1'"
0D
0_
0)"
1&"
1j
0?
10"
1$
#2200000
0$
#2210000
0(
0&
1."
1>
1-"
1=
1,"
1*
1J
1("
0x
0I
0'"
0M
0H
0&"
1L
0G
1K
1%
1$
#2220000
0$
#2230000
1&
0>
0w
0<
0v
0:
1O
1*
0f
0r
0a
1N
0x
0e
1q
1`
1M
0d
1_
1p
1V
1^
1i
0L
0c
0B
0j
0K
1?
0,
0%"
0[
1P
0C
1b
0@
00"
02"
14"
1$
#2240000
0$
#2250000
0*
0&
1x
1>
1w
1<
1v
1:
1a
1r
0`
0q
0_
0p
1s
1j
1K
0?
10"
1$
#2260000
0$
#2270000
1&
0#
1"
0>
1g
0o
0=
1f
0n
1e
1m
1d
1Q
1_
1p
1c
1B
0j
0K
1?
0s
0b
0^
1@
00"
04"
1$
#2280000
0$
#2290000
1'
0&
09
1>
08
1=
0l
1n
1k
0_
0m
0p
1j
1K
0?
10"
1$
#2300000
0$
#2310000
1&
0>
07
0<
18
0=
06
0;
1l
0n
05
0k
1m
10
14
0i
0j
1?
13
0F
00"
11"
0H
0&"
1G
0K
0%
1$
#2320000
0$
#2330000
1#
0g
1(
0f
0."
0&
17
0Z
08
0"
1>
16
1<
0U
1o
1=
1;
1T
1n
15
1S
0m
00
04
1R
1K
0?
10"
12
0G
0p
01
1%
1$
#2340000
0$
#2350000
1&
0>
1f
0/
0,"
07
0<
1Z
18
0.
0+"
02
06
0;
1U
0O
0-"
1-
1*"
11
05
0T
0E
0S
1p
1)"
10
14
0Q
0V
1D
0R
0K
1?
1,
1y
1[
0P
1C
00"
12"
1$
#2360000
0$
#2370000
1*
0'
0&
0f
0x
1#
0(
19
1>
0e
0w
0g
1."
17
1<
0]
1O
1-"
16
1;
1\
1E
15
1W
0D
0)"
00
04
1&"
1R
0?
10"
1/
1.
1,"
0-
1+"
12
1G
0p
0*"
01
0%
1$
#2380000
0$
#2390000
0*
1x
1w
0a
1]
1`
0d
0W
1H
1_
0\
1V
1^
1i
0c
0B
0&"
1?
03
0R
1F
0,
0y
0[
1P
0C
1b
0@
00"
01"
02"
14"
1$
#2400000
0$
#2410000
0#
1"
1g
0o
0=
1f
0n
1e
1m
1d
1a
1Q
1c
0`
1B
0b
0^
1@
04"
0*
1&
1x
0>
1w
1<
1v
1:
1r
0H
0q
0G
1p
1%
1$
#2420000
0$
#2430000
1'
0&
09
1>
08
1=
0l
1n
1k
0_
0m
0p
1j
1K
0?
10"
1$
#2440000
0$
#2450000
1&
0>
07
0<
18
0=
06
0;
1l
0n
05
0k
1m
10
14
0i
0j
1?
13
0F
00"
11"
0H
0&"
1G
0K
0%
1$
#2460000
0$
#2470000
1#
0g
1(
0f
0."
0&
17
0Z
08
0"
1>
16
1<
0U
1o
1=
1;
1T
1n
15
1S
0m
00
04
1R
1K
0?
10"
12
0G
0p
01
1%
1$
#2480000
0$
